<svg width="528" height="528" viewBox="0 0 528 528" fill="none" xmlns="http://www.w3.org/2000/svg">
<circle opacity="0.5" cx="264" cy="264" r="264" fill="url(#paint0_radial_109_1120)"/>
<circle opacity="0.6" cx="265" cy="264" r="200" fill="url(#paint1_radial_109_1120)"/>
<defs>
<radialGradient id="paint0_radial_109_1120" cx="0" cy="0" r="1" gradientUnits="userSpaceOnUse" gradientTransform="translate(264 264) rotate(90) scale(264)">
<stop stop-color="#8DFF49"/>
<stop offset="1" stop-color="#8DFF49" stop-opacity="0"/>
</radialGradient>
<radialGradient id="paint1_radial_109_1120" cx="0" cy="0" r="1" gradientUnits="userSpaceOnUse" gradientTransform="translate(265 264) rotate(90) scale(200)">
<stop stop-color="#8DFF49"/>
<stop offset="1" stop-color="#8DFF49" stop-opacity="0"/>
</radialGradient>
</defs>
</svg>
