<svg width="26" height="32" viewBox="0 0 26 32" fill="none" xmlns="http://www.w3.org/2000/svg">
<path d="M12.6476 20.9809L12.7096 20.4312L12.7715 20.9809L13.0311 23.2869H12.3879L12.6476 20.9809ZM13.2844 19.8258L12.7096 20.2387L12.1347 19.8258C11.8901 19.6501 11.7524 19.3827 11.7524 19.0884C11.7524 18.5916 12.1677 18.1589 12.7096 18.1589C13.2515 18.1589 13.6667 18.5916 13.6667 19.0884C13.6667 19.3827 13.529 19.6501 13.2844 19.8258ZM15.8738 10.3707V11.3002H9.54523V10.3707C9.54523 8.67256 10.9509 7.26196 12.7095 7.26196C14.4681 7.26196 15.8738 8.67256 15.8738 10.3707ZM22.0899 11.3002H21.6845V10.3707C21.6845 5.45947 17.6446 1.49286 12.7095 1.49286C7.77444 1.49286 3.73451 5.45947 3.73451 10.3707V11.3002H3.32915C2.34875 11.3002 1.52734 12.0886 1.52734 13.095V26.7163C1.52734 28.6235 3.09182 30.1457 4.98451 30.1457H20.4346C22.3272 30.1457 23.8917 28.6234 23.8917 26.7162V13.095C23.8917 12.0886 23.0703 11.3002 22.0899 11.3002Z" stroke="white" stroke-width="2.5"/>
</svg>
