<svg width="40" height="40" viewBox="0 0 40 40" fill="none" xmlns="http://www.w3.org/2000/svg">
<circle cx="20" cy="20" r="19" fill="#8DFF49" stroke="#004721" stroke-width="2"/>
<path d="M14 18L20.4 24.4L26.8 18" stroke="black" stroke-width="3" stroke-linecap="round"/>
</svg>
