<svg width="106" height="106" viewBox="0 0 106 106" fill="none" xmlns="http://www.w3.org/2000/svg">
<path fill-rule="evenodd" clip-rule="evenodd" d="M0 0H105.362V82.4961C93.2536 82.525 81.1053 82.4381 69.0676 80.9789C70.8509 78.3606 71.7913 75.0944 71.3724 71.9335C71.1986 71.1038 70.2266 71.1433 69.5813 70.98C69.1098 68.475 67.6979 66.0569 65.3879 64.8452C65.5433 63.9023 65.6355 62.9514 65.6671 61.9952C66.265 61.5316 66.9499 61.1418 67.395 60.5122C67.8665 59.8116 66.9551 58.6552 66.2229 59.3164C65.6328 59.614 65.0033 60.665 64.3026 60.0381C63.6467 59.5877 62.9935 59.0424 62.1664 58.9792C60.7914 58.7606 59.4639 59.2847 58.239 59.8458C56.951 60.4911 55.4601 60.0802 54.1088 60.4622C52.5626 60.8046 51.2298 61.7581 50.2526 62.9856C50.1577 61.9741 49.9918 60.8705 49.1647 60.1803C47.9372 58.9318 46.0881 58.9107 44.455 58.8896C44.1231 60.5833 43.9809 62.4087 44.8764 63.9655C42.7323 64.6398 41.2151 66.56 40.7594 68.7226C39.8375 67.4925 38.9577 66.1886 37.7276 65.243C36.7451 64.4554 35.4044 64.8084 34.2507 64.7293C32.9178 64.7847 31.29 64.4554 30.2785 65.5564C29.2038 66.5837 29.2565 68.4882 30.3786 69.4654C31.3453 70.5164 32.881 70.037 34.1242 70.2503C35.4597 71.7149 36.2499 73.5745 37.2482 75.2656C35.5071 75.0232 33.8266 74.4833 32.1329 74.0355C24.7522 72.0178 17.4743 69.6208 10.3281 66.8866C6.86963 65.43 3.45325 63.868 0 62.3982V0ZM24.8207 16.4023C22.6792 17.5376 21.1594 19.7238 20.788 22.1182C19.8871 27.7366 19.1812 33.4473 17.2636 38.8366C16.771 40.0034 16.3917 41.3969 15.2278 42.0843C13.6868 43.0958 12.3619 44.7079 12.2513 46.6149C12.2223 49.1647 12.1433 51.7171 12.1854 54.2695C12.1591 55.2625 12.9282 56.2556 13.9371 56.3609C15.1672 56.5137 16.4078 56.3926 17.6432 56.4242C19.1867 56.4136 20.891 56.6164 22.2238 55.6603C23.4697 54.9649 24.1019 53.6136 24.4417 52.2887C28.4086 52.2861 32.3781 52.265 36.345 52.2992C36.5873 53.8033 37.4381 55.3047 38.8763 55.9395C40.3804 56.6797 42.1031 56.3636 43.7177 56.4294C44.961 56.3846 46.4571 56.5664 47.3949 55.5681C48.2483 54.6541 47.8848 53.3397 47.9296 52.2202C49.6049 52.1912 51.2827 52.2334 52.958 52.2018C54.7413 52.2044 56.3823 51.0243 57.1356 49.4413C57.7019 48.2691 57.8811 46.9626 58.3657 45.7615C60.66 45.7747 62.9543 45.7589 65.2485 45.772C65.6331 47.0232 65.8991 48.3218 66.4338 49.5203C67.2135 51.1982 69.0442 52.2176 70.867 52.207C72.7055 52.2149 74.5467 52.2176 76.3853 52.207C77.0807 52.2518 77.6734 51.883 78.1844 51.459C80.2416 52.4467 82.8177 52.56 84.8143 51.3589C86.9268 50.163 88.2755 47.7344 88.1095 45.3032C88.1069 43.3592 87.0664 41.597 85.6625 40.3169C86.8109 39.1684 86.7029 37.4326 86.8215 35.9365C87.1402 30.6288 87.559 25.3265 87.7987 20.0162C87.8777 18.2461 86.9663 16.3312 85.2805 15.6147C83.7475 14.8456 81.9827 15.0853 80.3311 15.0457C78.9325 15.0879 77.5232 14.9404 76.1377 15.1511C75.2448 15.4619 74.5678 16.4286 74.689 17.3874C75.0657 24.2992 75.5977 31.2004 75.9665 38.1122C76.0376 39.0315 76.5987 39.7848 77.1334 40.4934C76.7936 40.7989 76.4564 41.1018 76.1166 41.4048C74.0489 34.3982 72.0312 27.3731 69.9424 20.3692C69.0758 17.4638 66.3522 15.0747 63.244 15.0984C61.4871 15.1432 59.6301 14.8508 57.9812 15.6068C55.6922 16.5551 54.1407 18.7361 53.4137 21.0409C51.2459 28.4979 49.0622 35.9496 46.8602 43.3961C46.2728 42.677 45.4878 42.1686 44.6581 41.7735C44.6528 37.7671 44.6607 33.7634 44.6555 29.7596C44.6897 26.1615 44.5211 22.5686 44.608 18.9705C44.695 17.7746 44.2762 16.476 43.241 15.7912C42.4086 15.1432 41.3076 15.1616 40.3066 15.1458C36.8823 15.1537 33.4607 15.1406 30.0364 15.1537C28.2318 15.159 26.4249 15.5646 24.8207 16.4023ZM31.801 25.7268C31.0213 31.0345 30.318 36.3842 28.7692 41.5365C30.1889 41.5628 31.614 41.6076 33.0285 41.4601C32.9679 36.0049 33.0021 30.5498 33.0127 25.092C32.5728 25.1921 31.8326 25.0999 31.801 25.7268ZM61.4262 35.1673C61.608 35.1831 61.9741 35.2147 62.1559 35.2305C62.0479 34.8723 61.9372 34.5141 61.8293 34.1585C61.6949 34.4956 61.5606 34.8328 61.4262 35.1673ZM48.7801 65.7303C46.9863 64.8084 44.5788 65.106 43.2855 66.7286C42.2055 67.8955 42.0686 69.5813 42.3952 71.0695C45.2057 71.2118 48.0242 71.1038 50.84 71.1354C52.5416 71.1143 54.2458 71.196 55.9474 71.0669C56.3688 69.6998 56.6665 68.1194 55.9369 66.7997C55.1782 65.2087 53.3608 64.242 51.6196 64.4054C50.5423 64.4712 49.602 65.077 48.7801 65.7303Z" fill="#62BB47"/>
<path fill-rule="evenodd" clip-rule="evenodd" d="M24.8205 16.4023C26.4247 15.5647 28.2317 15.159 30.036 15.1538C33.4603 15.1406 36.8819 15.1538 40.3062 15.1458C41.3071 15.1617 42.4082 15.1432 43.2405 15.7912C44.2757 16.476 44.6945 17.7746 44.6076 18.9705C44.5207 22.5686 44.6893 26.1615 44.655 29.7596C44.6603 33.7634 44.6524 37.7671 44.6576 41.7735C45.4874 42.1687 46.2723 42.677 46.8597 43.3961C49.0618 35.9496 51.2454 28.4979 53.4132 21.0409C54.1403 18.7361 55.6917 16.5551 57.9807 15.6068C59.6296 14.8508 61.4866 15.1432 63.2436 15.0984C66.3517 15.0747 69.0754 17.4638 69.942 20.3692C72.0308 27.3731 74.0485 34.3982 76.1162 41.4048C76.456 41.1019 76.7932 40.7989 77.1329 40.4934C76.5982 39.7848 76.0372 39.0315 75.9661 38.1122C75.5973 31.2004 75.0652 24.2992 74.6885 17.3874C74.5674 16.4286 75.2443 15.4619 76.1373 15.1511C77.5228 14.9404 78.932 15.0879 80.3307 15.0458C81.9822 15.0853 83.7471 14.8456 85.2801 15.6147C86.9659 16.3312 87.8773 18.2461 87.7982 20.0162C87.5585 25.3265 87.1397 30.6288 86.821 35.9365C86.7025 37.4326 86.8105 39.1685 85.662 40.3169C87.066 41.5971 88.1064 43.3592 88.1091 45.3032C88.275 47.7344 86.9264 50.163 84.8139 51.3589C82.8172 52.56 80.2411 52.4467 78.1839 51.459C77.6729 51.8831 77.0803 52.2518 76.3849 52.207C74.5463 52.2176 72.7051 52.2149 70.8665 52.207C69.0438 52.2176 67.2131 51.1982 66.4334 49.5203C65.8987 48.3218 65.6326 47.0232 65.2481 45.772C62.9538 45.7589 60.6595 45.7747 58.3653 45.7615C57.8806 46.9626 57.7015 48.2691 57.1352 49.4413C56.3818 51.0243 54.7408 52.2044 52.9576 52.2018C51.2823 52.2334 49.6044 52.1912 47.9291 52.2202C47.8844 53.3397 48.2479 54.6541 47.3944 55.5681C46.4567 56.5664 44.9606 56.3847 43.7173 56.4294C42.1026 56.3636 40.3799 56.6797 38.8759 55.9395C37.4377 55.3047 36.5869 53.8033 36.3446 52.2992C32.3777 52.265 28.4081 52.2861 24.4412 52.2887C24.1014 53.6136 23.4695 54.9649 22.2234 55.6603C20.8905 56.6165 19.1863 56.4136 17.6427 56.4242C16.4074 56.3926 15.1667 56.5137 13.9366 56.361C12.9278 56.2556 12.1586 55.2626 12.185 54.2695C12.1428 51.7171 12.2218 49.1647 12.2508 46.6149C12.3615 44.7079 13.6864 43.0958 15.2273 42.0844C16.3916 41.3969 16.7709 40.0035 17.2632 38.8366C19.1808 33.4473 19.8867 27.7366 20.7875 22.1182C21.1592 19.7238 22.6791 17.5376 24.8205 16.4023ZM55.3783 21.9918C52.6625 31.3795 49.8494 40.7384 47.1758 50.134C49.0091 50.0524 50.8477 50.1235 52.6836 50.0945C53.271 50.1103 53.8189 49.8785 54.3483 49.6546C54.7856 49.1489 55.236 48.6274 55.4204 47.9688C55.8445 46.5412 56.3002 45.1188 56.6505 43.6701C59.3952 43.6648 62.1373 43.6885 64.8819 43.6622C64.7344 41.576 64.2629 39.2027 62.5034 37.862C61.3997 36.9796 59.9404 37.185 58.6313 37.2114C59.5822 33.5526 60.7886 29.9624 61.75 26.3037C63.9627 33.5711 66.0304 40.8832 68.1903 48.1664C68.5248 49.3122 69.6865 50.0761 70.8586 50.0787C72.6919 50.1498 74.5331 50.0339 76.3691 50.1367C76.2268 49.2911 75.9503 48.4799 75.7053 47.6607C73.1134 38.8129 70.5215 29.9651 67.9269 21.1199C67.4765 19.6369 66.4676 18.2751 65.0294 17.6324C63.636 17.0029 62.0661 17.1846 60.5805 17.1793C57.928 17.2373 55.9551 19.5579 55.3783 21.9918ZM25.4288 18.5464C24.0195 19.4552 23.1163 21.0145 22.8816 22.6608C21.9492 28.5532 21.1985 34.5457 19.0728 40.1589C18.4564 41.5233 17.8901 43.1064 16.4888 43.8571C15.3825 44.4682 14.45 45.5929 14.4184 46.9021C14.263 49.3465 14.4079 51.7961 14.3394 54.2432C16.0541 54.2616 17.7715 54.259 19.4863 54.2563C20.2555 54.2695 21.0905 54.072 21.5936 53.4451C22.4101 52.5442 22.2494 51.2272 22.2573 50.1024C27.6651 50.0893 33.0728 50.0972 38.4831 50.0998C38.4752 50.9427 38.3883 51.8119 38.6201 52.6364C38.8809 53.3818 39.492 54.0799 40.2927 54.2379C42.1313 54.2827 43.9725 54.2484 45.8111 54.2405C45.8427 51.9647 45.8164 49.6889 45.8322 47.4131C45.8506 46.1882 45.5108 44.7974 44.4467 44.0652C43.8724 43.649 43.1296 43.7491 42.4658 43.7438C42.4527 35.486 42.4606 27.2309 42.4606 18.9758C42.4843 18.4463 42.3341 17.9406 42.0971 17.4717C40.8933 17.2636 39.6711 17.3453 38.4568 17.3347C35.5567 17.34 32.6566 17.3295 29.7565 17.34C28.2396 17.3347 26.7223 17.7509 25.4288 18.5464ZM76.9854 17.4296C77.3121 23.2956 77.6229 29.1617 77.9706 35.0277C78.0259 36.2367 77.9732 37.4695 78.3183 38.6443C78.8082 38.7575 79.306 38.8892 79.8144 38.8392C81.3027 38.7312 82.7935 38.7839 84.2844 38.7628C84.6585 37.6512 84.5583 36.4606 84.7059 35.3122C84.993 30.7974 85.3117 26.2826 85.583 21.7679C85.5382 20.6958 85.8991 19.4762 85.2432 18.528C84.6664 17.5929 83.4547 17.3874 82.4406 17.3874C80.6231 17.398 78.8029 17.3611 76.9854 17.4296ZM61.4261 35.1673C61.6078 35.1831 61.9739 35.2147 62.1557 35.2305C62.0477 34.8723 61.9371 34.5141 61.8291 34.1585C61.6947 34.4956 61.5604 34.8328 61.4261 35.1673ZM80.8944 41.115C79.5115 41.252 78.1918 42.1002 77.5228 43.3224C76.3454 45.2321 76.9459 47.9846 78.795 49.2464C80.4571 50.487 82.9595 50.3342 84.4925 48.9566C86.1283 47.5263 86.4733 44.8659 85.2379 43.0774C84.3345 41.6471 82.5565 40.8911 80.8944 41.115ZM29.6593 25.4081C29.1193 29.3302 28.5451 33.255 27.6917 37.1271C27.1227 39.3713 26.7144 41.7551 25.35 43.6832C28.6241 43.6437 31.9035 43.7201 35.1777 43.6411C35.1408 38.668 35.1671 33.6949 35.1645 28.7218C35.1329 27.5259 35.4016 26.28 36.1233 25.3054C36.9741 24.0621 38.3807 23.4379 39.7399 22.9137C37.2823 23.0296 34.8221 22.9137 32.3645 22.9822C31.0422 23.0533 29.8121 24.0595 29.6593 25.4081ZM31.8008 25.7269C31.0211 31.0345 30.3178 36.3843 28.769 41.5365C30.1888 41.5628 31.6138 41.6076 33.0283 41.4601C32.9677 36.005 33.0019 30.5498 33.0125 25.092C32.5726 25.1921 31.8324 25.0999 31.8008 25.7269ZM44.4548 58.8897C46.0879 58.9107 47.937 58.9318 49.1645 60.1803C49.9916 60.8705 50.1576 61.9741 50.2524 62.9856C51.2296 61.7581 52.5625 60.8046 54.1086 60.4622C55.4599 60.0802 56.9508 60.4912 58.2388 59.8458C59.4637 59.2848 60.7913 58.7606 62.1662 58.9792C62.9933 59.0424 63.6466 59.5877 64.3024 60.0381C65.0031 60.665 65.6326 59.614 66.2227 59.3164C66.9549 58.6552 67.8663 59.8116 67.3948 60.5122C66.9497 61.1418 66.2648 61.5316 65.6669 61.9952C65.6353 62.9514 65.5431 63.9023 65.3877 64.8453C67.6977 66.0569 69.1096 68.475 69.5811 70.98C70.2264 71.1433 71.1984 71.1038 71.3723 71.9335C71.7911 75.0944 70.8507 78.3606 69.0675 80.9789C68.7803 81.3819 68.4669 81.7664 68.1534 82.151C66.9207 83.5049 65.3192 84.5006 63.6176 85.1538C61.3365 85.9783 58.9737 86.5578 56.7111 87.4376L56.6373 86.8054C56.5847 87.0372 56.5267 87.269 56.4819 87.5034C56.8217 87.5693 57.1589 87.6404 57.4987 87.7168C59.8219 88.1093 62.074 88.8494 64.255 89.7318C65.7301 90.3877 67.1604 91.7601 67.0498 93.5012C67.1314 94.6628 66.5124 95.7375 65.6353 96.454C64.6528 97.4207 63.125 97.1414 61.8791 97.0651C60.2407 96.7095 59.3452 95.0105 59.2925 93.438C56.4925 92.9744 53.6477 93.164 50.8213 93.1351C48.772 93.0876 46.7386 93.3827 44.6919 93.3958C44.3574 94.784 43.8411 96.3275 42.3976 96.9176C40.1903 98.2006 36.7318 96.4513 36.9135 93.7886C36.9425 92.9983 36.8081 92.0843 37.356 91.4311C38.7758 89.6268 40.7382 88.365 42.6821 87.1929C43.7068 86.5897 44.7209 85.9417 45.8614 85.5703C43.7384 85.3833 41.4494 84.3797 40.5907 82.2935C39.8953 80.4681 39.1393 78.6638 38.2332 76.9279C37.9408 76.3537 37.5984 75.8058 37.248 75.2659C36.2497 73.5748 35.4595 71.7151 34.124 70.2506C32.8808 70.0372 31.3451 70.5166 30.3784 69.4657C29.2563 68.4884 29.2036 66.584 30.2783 65.5567C31.2898 64.4557 32.9176 64.7849 34.2505 64.7296C35.4042 64.8086 36.7449 64.4557 37.7274 65.2433C38.9575 66.1889 39.8373 67.4928 40.7592 68.7229C41.2149 66.5603 42.7321 64.6401 44.8763 63.9657C43.9807 62.4088 44.1229 60.5834 44.4548 58.8897ZM45.6033 60.2989C45.5769 61.3077 45.4084 62.5484 46.2644 63.2859C46.8782 63.9023 47.8238 63.7706 48.614 63.8364C48.7799 63.0594 48.9512 62.148 48.4217 61.4658C47.7764 60.586 46.6147 60.4095 45.6033 60.2989ZM58.2705 61.3946C57.1009 61.9267 55.7786 61.5105 54.5643 61.8319C53.7004 62.0294 52.918 62.4614 52.1831 62.9408C53.9058 63.1147 55.5231 63.9154 56.6373 65.2535C58.7314 63.7021 61.4972 63.5098 63.9521 64.1841C64.7107 62.6669 63.5834 60.6123 61.9107 60.3937C60.6095 60.2172 59.4321 60.9284 58.2705 61.3946ZM48.7799 65.7303C46.9861 64.8084 44.5786 65.106 43.2853 66.7286C42.2053 67.8955 42.0684 69.5813 42.395 71.0695C45.2055 71.2118 48.024 71.1038 50.8398 71.1354C52.5414 71.1143 54.2456 71.196 55.9472 71.0669C56.3687 69.6998 56.6663 68.1194 55.9367 66.7997C55.1781 65.2088 53.3606 64.2421 51.6195 64.4054C50.5421 64.4712 49.6018 65.077 48.7799 65.7303ZM59.2187 65.4722C58.6445 65.7487 58.0676 66.0174 57.4908 66.2861C57.5118 66.6707 57.5382 67.0579 57.5724 67.4451C57.9096 68.2432 57.9333 69.2336 57.5988 70.0396C57.5645 70.2951 57.4987 70.8035 57.4671 71.0564C58.3179 71.2671 59.1924 71.1907 60.0563 71.1354C62.4323 71.1775 64.8108 71.1565 67.1894 71.1696C67.5134 71.1143 67.8321 71.0432 68.1508 70.9563C68.0033 70.4848 67.84 70.0212 67.6635 69.5602C67.1393 68.2774 66.3017 67.0552 65.0584 66.3783C64.7924 66.0701 64.4131 65.92 64.0522 65.7619C62.5113 65.1666 60.8202 65.0797 59.2187 65.4722ZM31.6717 66.3993C30.8683 66.8735 30.9658 67.9982 31.598 68.5751C32.7122 68.6278 33.8264 68.6225 34.9406 68.6093C37.9013 72.5789 40.2614 76.9962 41.9972 81.6295C42.5741 83.0334 44.1124 83.8421 45.5822 83.879C48.6851 83.9448 51.788 83.8553 54.891 83.9079C49.4938 85.2513 44.2704 87.535 39.9111 91.0225C39.3447 91.5306 38.6546 91.9892 38.386 92.7373C38.2253 93.5512 38.299 94.539 38.9865 95.1053C39.9743 96.1089 41.8445 95.914 42.6163 94.7392C43.122 93.92 43.0061 92.8558 42.4872 92.0762C45.008 91.8628 47.5288 91.6099 50.0627 91.6047C53.8136 91.3571 57.5672 91.6521 61.2944 92.0551C60.8044 92.9401 60.6332 94.1175 61.3628 94.9315C62.4007 96.2222 64.7371 95.9298 65.3508 94.3625C65.9461 93.114 65.0426 91.7127 63.8468 91.2596C59.4611 89.2709 54.5854 88.536 49.7993 88.5571C54.3167 86.326 59.1581 84.8457 63.9995 83.5023C65.306 83.0993 66.2411 82.048 67.2184 81.1553C60.2091 81.0842 53.1973 81.1975 46.1907 81.0948C45.2055 78.9559 43.9201 76.9672 42.8823 74.8599C51.9039 74.91 60.9282 74.9758 69.9525 74.9284C70.0447 74.1198 70.0658 73.3059 70.0579 72.4919C60.4857 72.484 50.9162 72.5025 41.344 72.484C39.9427 70.2714 38.5598 67.9297 36.4763 66.2887C34.8748 66.3915 33.2653 66.2281 31.6717 66.3993ZM45.1423 76.1322C45.3767 76.551 45.6138 76.9698 45.8377 77.3992C53.6714 77.4571 61.5103 77.4571 69.3467 77.3965C69.4547 76.9751 69.5653 76.5563 69.6759 76.1375C61.4972 76.1243 53.3211 76.1322 45.1423 76.1322ZM46.5436 78.6161C46.7227 79.0586 46.9071 79.5012 47.0915 79.941C54.077 79.9516 61.0652 79.9279 68.0507 79.9542C68.3036 79.5143 68.5433 79.0718 68.7698 78.6187C61.3602 78.6293 53.9506 78.6319 46.5436 78.6161ZM58.8868 67.0947C58.8658 67.4398 58.842 67.7849 58.8236 68.1326C60.1222 67.7901 61.4708 67.6874 62.8037 67.8823C63.1961 68.2195 63.6571 68.4197 64.1865 68.4302C64.1786 68.1721 64.1628 67.6558 64.1549 67.3977C62.5245 66.5521 60.6174 66.5969 58.8868 67.0947Z" fill="#023C77"/>
<path fill-rule="evenodd" clip-rule="evenodd" d="M55.3784 21.9917C55.9553 19.5579 57.9282 17.2373 60.5807 17.1793C62.0663 17.1846 63.6362 17.0028 65.0296 17.6324C66.4678 18.2751 67.4767 19.6369 67.9271 21.1199C70.5216 29.965 73.1136 38.8128 75.7055 47.6606C75.9504 48.4798 76.227 49.2911 76.3692 50.1367C74.5333 50.0339 72.6921 50.1498 70.8588 50.0787C69.6866 50.0761 68.525 49.3122 68.1905 48.1664C66.0306 40.8832 63.9628 33.5711 61.7502 26.3037C60.7888 29.9624 59.5824 33.5526 58.6315 37.2113C59.9406 37.185 61.3999 36.9795 62.5036 37.8619C64.2631 39.2027 64.7346 41.576 64.8821 43.6621C62.1374 43.6885 59.3954 43.6648 56.6507 43.67C56.3004 45.1188 55.8447 46.5412 55.4206 47.9688C55.2362 48.6273 54.7858 49.1489 54.3485 49.6546C53.8191 49.8785 53.2712 50.1103 52.6838 50.0945C50.8479 50.1235 49.0093 50.0524 47.176 50.134C49.8496 40.7383 52.6627 31.3795 55.3784 21.9917ZM25.4289 18.5464C26.7223 17.7509 28.2395 17.3347 29.7567 17.34C32.6568 17.3295 35.5569 17.34 38.457 17.3347C39.6713 17.3453 40.8935 17.2636 42.0973 17.4717C42.3343 17.9406 42.4845 18.4463 42.4608 18.9757C42.4608 27.2309 42.4529 35.486 42.466 43.7438C43.1298 43.7491 43.8726 43.649 44.4468 44.0651C45.511 44.7974 45.8508 46.1882 45.8323 47.413C45.8165 49.6889 45.8429 51.9647 45.8113 54.2405C43.9727 54.2484 42.1315 54.2827 40.2929 54.2379C39.4922 54.0798 38.8811 53.3818 38.6203 52.6364C38.3885 51.8119 38.4754 50.9427 38.4833 50.0998C33.073 50.0971 27.6652 50.0892 22.2575 50.1024C22.2496 51.2272 22.4103 52.5442 21.5937 53.445C21.0906 54.0719 20.2556 54.2695 19.4865 54.2563C17.7717 54.259 16.0543 54.2616 14.3395 54.2432C14.408 51.7961 14.2632 49.3464 14.4186 46.902C14.4502 45.5929 15.3826 44.4682 16.4889 43.8571C17.8903 43.1064 18.4566 41.5233 19.073 40.1588C21.1986 34.5457 21.9493 28.5532 22.8818 22.6608C23.1165 21.0145 24.02 19.4551 25.4289 18.5464ZM29.6595 25.4081C29.1195 29.3302 28.5453 33.255 27.6919 37.127C27.1229 39.3713 26.7146 41.7551 25.3502 43.6832C28.6243 43.6437 31.9037 43.7201 35.1778 43.6411C35.141 38.668 35.1673 33.6949 35.1647 28.7218C35.1331 27.5259 35.4017 26.28 36.1235 25.3054C36.9743 24.0621 38.3809 23.4378 39.74 22.9137C37.2825 23.0296 34.8223 22.9137 32.3647 22.9822C31.0424 23.0533 29.8123 24.0595 29.6595 25.4081ZM76.9856 17.4296C78.8031 17.3611 80.6233 17.3979 82.4408 17.3874C83.4549 17.3874 84.6665 17.5929 85.2434 18.528C85.8993 19.4762 85.5384 20.6958 85.5832 21.7678C85.3119 26.2826 84.9932 30.7974 84.706 35.3122C84.5585 36.4606 84.6586 37.6512 84.2846 38.7628C82.7937 38.7839 81.3028 38.7312 79.8146 38.8392C79.3062 38.8892 78.8084 38.7575 78.3185 38.6443C77.9734 37.4695 78.0261 36.2367 77.9708 35.0277C77.6231 29.1616 77.3122 23.2956 76.9856 17.4296ZM80.8946 41.115C79.5117 41.252 78.192 42.1001 77.523 43.3223C76.3455 45.232 76.9461 47.9846 78.7952 49.2463C80.4573 50.487 82.9597 50.3342 84.4927 48.9566C86.1284 47.5263 86.4735 44.8659 85.2381 43.0774C84.3346 41.6471 82.5566 40.8911 80.8946 41.115ZM45.6035 60.2989C46.6149 60.4095 47.7765 60.586 48.4219 61.4657C48.9513 62.148 48.7801 63.0593 48.6142 63.8364C47.824 63.7705 46.8783 63.9022 46.2646 63.2859C45.4085 62.5483 45.5771 61.3077 45.6035 60.2989ZM58.2706 61.3946C59.4323 60.9284 60.6097 60.2172 61.9109 60.3937C63.5835 60.6123 64.7109 62.6669 63.9523 64.1841C61.4974 63.5098 58.7316 63.7021 56.6375 65.2535C55.5233 63.9154 53.906 63.1147 52.1833 62.9408C52.9182 62.4614 53.7005 62.0294 54.5645 61.8319C55.7788 61.5105 57.1011 61.9267 58.2706 61.3946ZM0 62.3982C3.45325 63.868 6.86963 65.43 10.3281 66.8866C17.4743 69.6208 24.7522 72.0178 32.1329 74.0355C33.8266 74.4833 35.5071 75.0232 37.2482 75.2656C37.5985 75.8056 37.941 76.3534 38.2334 76.9277C29.7016 75.0022 21.2753 72.5209 13.1308 69.3205C8.99794 67.6163 4.90198 65.8251 0.798119 64.0498C0.537348 63.9497 0.271308 63.8627 0 63.789V62.3982ZM31.6719 66.3993C30.8685 66.8735 30.966 67.9982 31.5982 68.5751C32.7124 68.6277 33.8266 68.6225 34.9408 68.6093C37.9015 72.5788 40.2616 76.9961 41.9974 81.6294C42.5743 83.0334 44.1126 83.8421 45.5824 83.8789C48.6853 83.9448 51.7882 83.8552 54.8911 83.9079C49.494 85.2513 44.2706 87.535 39.9113 91.0225C39.3449 91.5306 38.6548 91.9892 38.3861 92.7373C38.2255 93.5512 38.2992 94.539 38.9867 95.1053C39.9745 96.1089 41.8447 95.9139 42.6164 94.7392C43.1222 93.92 43.0063 92.8558 42.4874 92.0761C45.0082 91.8628 47.5289 91.6099 50.0629 91.6046C53.8138 91.357 57.5673 91.652 61.2945 92.0551C60.8046 92.9401 60.6334 94.1175 61.363 94.9314C62.4008 96.2221 64.7373 95.9298 65.351 94.3625C65.9463 93.1139 65.0428 91.7126 63.8469 91.2596C59.4612 89.2709 54.5856 88.536 49.7995 88.557C54.3169 86.326 59.1583 84.8456 63.9997 83.5023C65.3062 83.0993 66.2413 82.048 67.2185 81.1553C60.2093 81.0842 53.1974 81.1975 46.1908 81.0947C45.2057 78.9559 43.9203 76.9672 42.8825 74.8599C51.9041 74.91 60.9284 74.9758 69.9527 74.9284C70.0449 74.1198 70.0659 73.3058 70.0581 72.4919C60.4859 72.484 50.9163 72.5024 41.3442 72.484C39.9429 70.2714 38.56 67.9297 36.4764 66.2887C34.8749 66.3914 33.2655 66.2281 31.6719 66.3993ZM45.1425 76.1322C53.3212 76.1322 61.4974 76.1243 69.6761 76.1374C69.5655 76.5563 69.4548 76.9751 69.3468 77.3965C61.5105 77.4571 53.6716 77.4571 45.8379 77.3992C45.614 76.9698 45.3769 76.551 45.1425 76.1322ZM46.5438 78.6161C53.9508 78.6319 61.3604 78.6293 68.77 78.6187C68.5435 79.0718 68.3038 79.5143 68.0509 79.9542C61.0654 79.9279 54.0772 79.9516 47.0917 79.941C46.9073 79.5011 46.7229 79.0586 46.5438 78.6161ZM68.1536 82.151C68.4671 81.7664 68.7805 81.3819 69.0676 80.9788C81.1053 82.4381 93.2536 82.525 105.362 82.4961V83.4551C101.672 83.6316 97.9791 83.542 94.2861 83.5631C85.5569 83.6313 76.8223 83.1862 68.1536 82.151Z" fill="#FEFFFE"/>
<path fill-rule="evenodd" clip-rule="evenodd" d="M0 63.789C0.271308 63.8628 0.537348 63.9497 0.798119 64.0498C4.90198 65.8251 8.99794 67.6163 13.1308 69.3205C21.2753 72.5209 29.7016 75.0022 38.2334 76.9277C39.1395 78.6635 39.8954 80.4679 40.5908 82.2933C41.4495 84.3794 43.7385 85.383 45.8616 85.57C44.721 85.9414 43.7069 86.5894 42.6823 87.1926C40.7383 88.3648 38.776 89.6265 37.3562 91.4308C36.8083 92.0841 36.9427 92.9981 36.9137 93.7883C36.7319 96.4511 40.1905 98.2003 42.3978 96.9173C43.8413 96.3273 44.3575 94.7837 44.6921 93.3955C46.7387 93.3824 48.7722 93.0874 50.8215 93.1348C53.6479 93.1638 56.4926 92.9741 59.2927 93.4377C59.3453 95.0102 60.2409 96.7092 61.8793 97.0648C63.1252 97.1412 64.653 97.4204 65.6355 96.4537C66.5126 95.7372 67.1316 94.6625 67.0499 93.5009C67.1606 91.7598 65.7303 90.3875 64.2552 89.7316C62.0742 88.8492 59.8221 88.109 57.4989 87.7165C57.1591 87.6401 56.8219 87.569 56.4821 87.5032C56.5269 87.2687 56.5848 87.0369 56.6375 86.8051L56.7113 87.4373C58.9739 86.5575 61.3367 85.978 63.6178 85.1536C65.3194 84.5003 66.9209 83.5047 68.1536 82.1508C76.8223 83.1859 85.5569 83.6311 94.2861 83.5626C97.9791 83.5415 101.672 83.6311 105.362 83.4546V105.362H0V63.789ZM59.2189 65.4722C58.6447 65.7487 58.0678 66.0174 57.491 66.2861C57.512 66.6707 57.5384 67.0579 57.5726 67.4451C57.9098 68.2432 57.9335 69.2336 57.599 70.0396C57.5647 70.2951 57.4989 70.8035 57.4673 71.0564C58.3181 71.2671 59.1926 71.1907 60.0565 71.1354C62.4324 71.1775 64.811 71.1565 67.1896 71.1696C67.5135 71.1143 67.8323 71.0432 68.151 70.9563C68.0035 70.4848 67.8402 70.0212 67.6637 69.5602C67.1395 68.2774 66.3019 67.0552 65.0586 66.3783C64.7926 66.0701 64.4133 65.92 64.0524 65.7619C62.5115 65.1666 60.8204 65.0797 59.2189 65.4722ZM58.887 67.0947C58.8659 67.4398 58.8422 67.7849 58.8238 68.1326C60.1224 67.7901 61.471 67.6874 62.8038 67.8823C63.1963 68.2195 63.6573 68.4197 64.1867 68.4302C64.1788 68.1721 64.163 67.6558 64.1551 67.3977C62.5246 66.5521 60.6176 66.5969 58.887 67.0947Z" fill="#ED1B24"/>
</svg>
