<svg width="103" height="103" viewBox="0 0 103 103" fill="none" xmlns="http://www.w3.org/2000/svg">
<path fill-rule="evenodd" clip-rule="evenodd" d="M51.5 0C23.1022 0 0 23.1022 0 51.5C0 79.8978 23.1022 103 51.5 103C79.8956 103 103 79.8978 103 51.5C103 23.1022 79.8956 0 51.5 0Z" fill="white"/>
<path fill-rule="evenodd" clip-rule="evenodd" d="M77.4891 14.5615C73.5585 24.6428 64.6102 26.7403 51.6483 26.7403C50.2571 26.7403 48.8792 26.7185 47.5493 26.6988C46.2631 26.6813 45.047 26.6617 43.855 26.6617C42.7963 26.6617 41.7289 26.6748 40.6768 26.7208C42.4923 22.2629 45.3904 19.2335 49.5157 17.3962C55.266 14.8371 62.7423 14.8109 69.3393 14.7912C72.2133 14.7802 74.9649 14.7693 77.4891 14.5615Z" fill="#00923A"/>
<path fill-rule="evenodd" clip-rule="evenodd" d="M81.5296 17.7955C75.7158 30.4598 62.7582 31.7286 51.6512 31.7286C49.2123 31.7286 46.8763 31.6696 44.7129 31.6564L41.9154 42.5972C56.2422 30.917 75.1886 42.4966 73.1632 60.122C71.7983 71.9924 63.3357 79.7551 54.3831 81.9861C44.6298 84.4185 33.8246 80.7788 28.9797 70.8396C28.4657 69.7897 27.5711 67.6856 27.2299 66.5613L37.5146 63.9191C37.6961 64.5118 38.0045 65.0848 38.3283 65.6077C45.2138 76.7125 59.1666 71.1591 60.7414 59.6385C62.3448 47.919 45.9007 41.6764 38.4069 55.3733L29.2859 51.4864L29.1285 51.4164L33.5271 33.7584C33.7984 32.5028 34.7127 28.9966 34.8701 28.4213C39.8419 10.1399 55.9252 9.85117 68.8257 9.80305C63.491 7.58294 57.6422 6.35367 51.5023 6.35367C26.5671 6.35367 6.35645 26.5644 6.35645 51.4996C6.35645 76.4347 26.5671 96.6454 51.5023 96.6454C76.4376 96.6454 96.6483 76.4347 96.6483 51.4996C96.6483 38.0957 90.8037 26.0635 81.5296 17.7955Z" fill="#E52322"/>
</svg>
